[targets]
#bareos.idc.ufpa.br           	service=""           web=""            typedb="Postgresql"
afua.ufpa.br         	service="Apache"     web="Virtual"     typedb="Mysql"
fortaleza.ufpa.br          	service="Apache"     web="Virtual"     typedb="Mysql"
icui.ufpa.br         	service=""           web=""            typedb="Postgresql"
vinagre.ufpa.br         	service="Nginx"      web="Virtual"     typedb=""
#10.15.10.18             service=""           web=""            typedb=""
#maracaja.ufpa.br           service=""           web=""             typedb=""
#maracacuera.ufpa.br            service=""           web=""             typedb=""
#chapeuvirado.ufpa.br            service=""           web=""             typedb=""
ispconfig.ufpa.br            service="Apache"           web="ISP"             typedb="Mysql"
#pororoca.ufpa.br           service=""           web=""             typedb=""
#slave-ispconfig-01.ufpa.br      service="Apache"     web="ISP"          typedb="Mysql"
[antigos]
#araruna.ufpa.br         	service="Apache"     web="WWW"       typedb=""
#bufalo.ufpa.br          	service=""           web=""          typedb=""
#beja.ufpa.br        	service="Apache"     web="WWW" 	 web="Virtual"        typedb=""